STAT 413/613 Homework: Tidy Text
…
# Interpretation: "The Quest" is slightly not that negative after filtering out "miss"

2 tf-idf for Mark Twains books

Use a single call to download all the following complete books at once from author Mark Twain from Project Gutenberg

Use the meta_fields argument to include the Book title as part of the download

Huckleberry Finn, Tom Sawyer , Connecticut Yankee in King Arthurs Court, Life on the Mississippi , Prince and the Pauper, and A Tramp Abroad

gutenberg_works() %>% 
  filter(str_detect(author, "Twain")) # get ids: 74, 76, 86, 119, 245, 1837

## # A tibble: 144 x 8
##    gutenberg_id title  author  gutenberg_autho language gutenberg_books rights
##           <int> <chr>  <chr>              <int> <chr>    <chr>            <chr> 
##  1           70 What  Twain,               53 en       <NA>             Publi
##  2           74 The A Twain,               53 en       Banned Books fr Publi
##  3           76 Adven Twain,               53 en       Best Books Ever Publi
##  4           86 A Con Twain,               53 en       Precursors of S Publi
##  5           91 Tom S Twain,               53 en       <NA>             Publi
##  6           93 Tom S Twain,               53 en       <NA>             Publi
##  7          102 The T Twain,               53 en       <NA>             Publi
##  8          119 A Tra Twain,               53 en       <NA>             Publi
##  9          142 The $ Twain,               53 en       <NA>             Publi
## 10          245 Life  Twain,               53 en       <NA>             Publi
## #  with 134 more rows, and 1 more variable: has_text <lgl>
…
